0,-0.14703,-0.58799,0.19163,2.8642,0.00034001,0.011062,-0.10899
0.030151,-0.1639,-0.59638,0.21071,2.8585,0.00034001,0.011062,-0.10899
0.060302,-0.18673,-0.60773,0.23651,2.8506,0.00034001,0.011062,-0.10899
0.090452,-0.21421,-0.62139,0.26756,2.8412,0.00034001,0.011062,-0.10899
0.1206,-0.24522,-0.63681,0.30258,2.8305,0.00034001,0.011062,-0.10899
0.15075,-0.27884,-0.65352,0.34053,2.8188,0.00034001,0.011062,-0.10899
0.1809,-0.3143,-0.67114,0.38053,2.8064,0.00034001,0.011062,-0.10899
0.21106,-0.35095,-0.68935,0.42185,2.7935,0.00034001,0.011062,-0.10899
0.24121,-0.38826,-0.70789,0.46387,2.7803,0.00034001,0.011062,-0.10899
0.27136,-0.42578,-0.72653,0.50612,2.767,0.00034001,0.011062,-0.10899
0.30151,-0.46317,-0.7451,0.54817,2.7536,0.00034001,0.011062,-0.10899
0.33166,-0.50014,-0.76346,0.58972,2.7402,0.00034001,0.011062,-0.10899
0.36181,-0.53646,-0.78149,0.6305,2.727,0.00034001,0.011062,-0.10899
0.39196,-0.57196,-0.79911,0.67031,2.7139,0.00034001,0.011062,-0.10899
0.42211,-0.60649,-0.81624,0.70899,2.7011,0.00034001,0.011062,-0.10899
0.45226,-0.63996,-0.83285,0.74643,2.6885,0.00034001,0.011062,-0.10899
0.48241,-0.67229,-0.84888,0.78255,2.6762,0.00034001,0.011062,-0.10899
0.51256,-0.70343,-0.86432,0.8173,2.6643,0.00034001,0.011062,-0.10899
0.54271,-0.73337,-0.87916,0.85064,2.6526,0.00034001,0.011062,-0.10899
0.57286,-0.76208,-0.89339,0.88257,2.6413,0.00034001,0.011062,-0.10899
0.60302,-0.78958,-0.907,0.91308,2.6303,0.00034001,0.011062,-0.10899
0.63317,-0.81587,-0.92002,0.9422,2.6195,0.00034001,0.011062,-0.10899
0.66332,-0.84097,-0.93244,0.96994,2.6092,0.00034001,0.011062,-0.10899
0.69347,-0.86493,-0.94429,0.99635,2.5991,0.00034001,0.011062,-0.10899
0.72362,-0.88777,-0.95557,1.0215,2.5893,0.00034001,0.011062,-0.10899
0.75377,-0.90953,-0.96632,1.0453,2.5797,0.00034001,0.011062,-0.10899
0.78392,-0.93026,-0.97655,1.068,2.5705,0.00034001,0.011062,-0.10899
0.81407,-0.94999,-0.98628,1.0895,2.5614,0.00034001,0.011062,-0.10899
0.84422,-0.96877,-0.99554,1.1098,2.5527,0.00034001,0.011062,-0.10899
0.87437,-0.98666,-1.0043,1.1292,2.5441,0.00034001,0.011062,-0.10899
0.90452,-1.0037,-1.0127,1.1475,2.5357,0.00034001,0.011062,-0.10899
0.93467,-1.0199,-1.0207,1.1649,2.5276,0.00034001,0.011062,-0.10899
0.96482,-1.0354,-1.0283,1.1814,2.5196,0.00034001,0.011062,-0.10899
0.99497,-1.0501,-1.0355,1.197,2.5117,0.00034001,0.011062,-0.10899
1.0251,-1.0641,-1.0424,1.2119,2.5041,0.00034001,0.011062,-0.10899
1.0553,-1.0775,-1.0489,1.2259,2.4965,0.00034001,0.011062,-0.10899
1.0854,-1.0904,-1.0552,1.2393,2.4891,0.00034001,0.011062,-0.10899
1.1156,-1.1026,-1.0612,1.252,2.4818,0.00034001,0.011062,-0.10899
1.1457,-1.1143,-1.0669,1.2641,2.4746,0.00034001,0.011062,-0.10899
1.1759,-1.1256,-1.0723,1.2756,2.4674,0.00034001,0.011062,-0.10899
1.206,-1.1364,-1.0776,1.2865,2.4604,0.00034001,0.011062,-0.10899
1.2362,-1.1467,-1.0826,1.297,2.4534,0.00034001,0.011062,-0.10899
1.2663,-1.1567,-1.0874,1.3069,2.4465,0.00034001,0.011062,-0.10899
1.2965,-1.1663,-1.092,1.3164,2.4396,0.00034001,0.011062,-0.10899
1.3266,-1.1755,-1.0965,1.3255,2.4328,0.00034001,0.011062,-0.10899
1.3568,-1.1845,-1.1008,1.3342,2.426,0.00034001,0.011062,-0.10899
1.3869,-1.1931,-1.1049,1.3425,2.4192,0.00034001,0.011062,-0.10899
1.4171,-1.2015,-1.1089,1.3505,2.4124,0.00034001,0.011062,-0.10899
1.4472,-1.2096,-1.1128,1.3582,2.4057,0.00034001,0.011062,-0.10899
1.4774,-1.2175,-1.1166,1.3656,2.3989,0.00034001,0.011062,-0.10899
1.5075,-1.2252,-1.1202,1.3727,2.3922,0.00034001,0.011062,-0.10899
1.5377,-1.2327,-1.1238,1.3796,2.3854,0.00034001,0.011062,-0.10899
1.5678,-1.24,-1.1272,1.3862,2.3786,0.00034001,0.011062,-0.10899
1.598,-1.2472,-1.1306,1.3926,2.3718,0.00034001,0.011062,-0.10899
1.6281,-1.2542,-1.1339,1.3988,2.365,0.00034001,0.011062,-0.10899
1.6583,-1.2611,-1.1371,1.4049,2.3582,0.00034001,0.011062,-0.10899
1.6884,-1.2679,-1.1402,1.4107,2.3514,0.00034001,0.011062,-0.10899
1.7186,-1.2745,-1.1433,1.4164,2.3445,0.00034001,0.011062,-0.10899
1.7487,-1.2811,-1.1464,1.422,2.3376,0.00034001,0.011062,-0.10899
1.7789,-1.2875,-1.1494,1.4274,2.3306,0.00034001,0.011062,-0.10899
1.809,-1.2939,-1.1523,1.4327,2.3237,0.00034001,0.011062,-0.10899
1.8392,-1.3002,-1.1552,1.4378,2.3167,0.00034001,0.011062,-0.10899
1.8693,-1.3065,-1.158,1.4429,2.3096,0.00034001,0.011062,-0.10899
1.8995,-1.3126,-1.1609,1.4479,2.3025,0.00034001,0.011062,-0.10899
1.9296,-1.3188,-1.1637,1.4527,2.2954,0.00034001,0.011062,-0.10899
1.9598,-1.3248,-1.1664,1.4575,2.2882,0.00034001,0.011062,-0.10899
1.9899,-1.3309,-1.1691,1.4622,2.281,0.00034001,0.011062,-0.10899
2.0201,-1.3369,-1.1718,1.4668,2.2738,0.00034001,0.011062,-0.10899
2.0503,-1.3428,-1.1745,1.4714,2.2665,0.00034001,0.011062,-0.10899
2.0804,-1.3488,-1.1772,1.4759,2.2591,0.00034001,0.011062,-0.10899
2.1106,-1.3547,-1.1798,1.4803,2.2518,0.00034001,0.011062,-0.10899
2.1407,-1.3606,-1.1825,1.4847,2.2444,0.00034001,0.011062,-0.10899
2.1709,-1.3664,-1.1851,1.489,2.2369,0.00034001,0.011062,-0.10899
2.201,-1.3723,-1.1877,1.4932,2.2294,0.00034001,0.011062,-0.10899
2.2312,-1.3781,-1.1902,1.4975,2.2219,0.00034001,0.011062,-0.10899
2.2613,-1.384,-1.1928,1.5016,2.2143,0.00034001,0.011062,-0.10899
2.2915,-1.3898,-1.1954,1.5057,2.2067,0.00034001,0.011062,-0.10899
2.3216,-1.3956,-1.1979,1.5098,2.1991,0.00034001,0.011062,-0.10899
2.3518,-1.4014,-1.2004,1.5139,2.1914,0.00034001,0.011062,-0.10899
2.3819,-1.4071,-1.2029,1.5179,2.1837,0.00034001,0.011062,-0.10899
2.4121,-1.4129,-1.2054,1.5218,2.176,0.00034001,0.011062,-0.10899
2.4422,-1.4187,-1.2079,1.5257,2.1682,0.00034001,0.011062,-0.10899
2.4724,-1.4245,-1.2104,1.5296,2.1605,0.00034001,0.011062,-0.10899
2.5025,-1.4302,-1.2129,1.5335,2.1527,0.00034001,0.011062,-0.10899
2.5327,-1.436,-1.2153,1.5373,2.1449,0.00034001,0.011062,-0.10899
2.5628,-1.4417,-1.2178,1.541,2.137,0.00034001,0.011062,-0.10899
2.593,-1.4474,-1.2202,1.5448,2.1292,0.00034001,0.011062,-0.10899
2.6231,-1.4531,-1.2227,1.5485,2.1213,0.00034001,0.011062,-0.10899
2.6533,-1.4589,-1.2251,1.5522,2.1134,0.00034001,0.011062,-0.10899
2.6834,-1.4646,-1.2275,1.5558,2.1055,0.00034001,0.011062,-0.10899
2.7136,-1.4703,-1.2299,1.5594,2.0976,0.00034001,0.011062,-0.10899
2.7437,-1.4759,-1.2323,1.563,2.0897,0.00034001,0.011062,-0.10899
2.7739,-1.4816,-1.2346,1.5665,2.0818,0.00034001,0.011062,-0.10899
2.804,-1.4873,-1.237,1.57,2.0739,0.00034001,0.011062,-0.10899
2.8342,-1.4929,-1.2393,1.5734,2.066,0.00034001,0.011062,-0.10899
2.8643,-1.4985,-1.2416,1.5769,2.0581,0.00034001,0.011062,-0.10899
2.8945,-1.5041,-1.244,1.5803,2.0502,0.00034001,0.011062,-0.10899
2.9246,-1.5097,-1.2463,1.5836,2.0423,0.00034001,0.011062,-0.10899
2.9548,-1.5153,-1.2485,1.5869,2.0344,0.00034001,0.011062,-0.10899
2.9849,-1.5209,-1.2508,1.5902,2.0265,0.00034001,0.011062,-0.10899
3.0151,-1.5264,-1.2531,1.5934,2.0187,0.00034001,0.011062,-0.10899
3.0452,-1.5319,-1.2553,1.5966,2.0109,0.00034001,0.011062,-0.10899
3.0754,-1.5374,-1.2575,1.5998,2.003,0.00034001,0.011062,-0.10899
3.1055,-1.5429,-1.2597,1.6029,1.9953,0.00034001,0.011062,-0.10899
3.1357,-1.5483,-1.2619,1.606,1.9875,0.00034001,0.011062,-0.10899
3.1658,-1.5537,-1.264,1.609,1.9798,0.00034001,0.011062,-0.10899
3.196,-1.5591,-1.2662,1.612,1.9721,0.00034001,0.011062,-0.10899
3.2261,-1.5644,-1.2683,1.6149,1.9644,0.00034001,0.011062,-0.10899
3.2563,-1.5697,-1.2704,1.6178,1.9568,0.00034001,0.011062,-0.10899
3.2864,-1.575,-1.2725,1.6207,1.9492,0.00034001,0.011062,-0.10899
3.3166,-1.5803,-1.2746,1.6235,1.9417,0.00034001,0.011062,-0.10899
3.3467,-1.5855,-1.2766,1.6263,1.9341,0.00034001,0.011062,-0.10899
3.3769,-1.5907,-1.2786,1.6291,1.9267,0.00034001,0.011062,-0.10899
3.407,-1.5958,-1.2806,1.6318,1.9193,0.00034001,0.011062,-0.10899
3.4372,-1.6009,-1.2826,1.6344,1.9119,0.00034001,0.011062,-0.10899
3.4673,-1.606,-1.2846,1.637,1.9046,0.00034001,0.011062,-0.10899
3.4975,-1.611,-1.2865,1.6396,1.8973,0.00034001,0.011062,-0.10899
3.5276,-1.6159,-1.2884,1.6421,1.8901,0.00034001,0.011062,-0.10899
3.5578,-1.6209,-1.2903,1.6446,1.883,0.00034001,0.011062,-0.10899
3.5879,-1.6258,-1.2922,1.647,1.8759,0.00034001,0.011062,-0.10899
3.6181,-1.6306,-1.294,1.6494,1.8689,0.00034001,0.011062,-0.10899
3.6482,-1.6354,-1.2958,1.6518,1.8619,0.00034001,0.011062,-0.10899
3.6784,-1.6401,-1.2976,1.6541,1.855,0.00034001,0.011062,-0.10899
3.7085,-1.6448,-1.2994,1.6563,1.8481,0.00034001,0.011062,-0.10899
3.7387,-1.6495,-1.3011,1.6586,1.8414,0.00034001,0.011062,-0.10899
3.7688,-1.6541,-1.3028,1.6607,1.8347,0.00034001,0.011062,-0.10899
3.799,-1.6586,-1.3045,1.6629,1.828,0.00034001,0.011062,-0.10899
3.8291,-1.6631,-1.3062,1.665,1.8215,0.00034001,0.011062,-0.10899
3.8593,-1.6675,-1.3078,1.667,1.815,0.00034001,0.011062,-0.10899
3.8894,-1.6719,-1.3094,1.669,1.8086,0.00034001,0.011062,-0.10899
3.9196,-1.6762,-1.311,1.671,1.8022,0.00034001,0.011062,-0.10899
3.9497,-1.6805,-1.3126,1.6729,1.796,0.00034001,0.011062,-0.10899
3.9799,-1.6847,-1.3141,1.6748,1.7898,0.00034001,0.011062,-0.10899
4.0101,-1.6889,-1.3157,1.6767,1.7837,0.00034001,0.011062,-0.10899
4.0402,-1.693,-1.3171,1.6785,1.7776,0.00034001,0.011062,-0.10899
4.0704,-1.697,-1.3186,1.6802,1.7717,0.00034001,0.011062,-0.10899
4.1005,-1.701,-1.3201,1.6819,1.7658,0.00034001,0.011062,-0.10899
4.1307,-1.705,-1.3215,1.6836,1.76,0.00034001,0.011062,-0.10899
4.1608,-1.7089,-1.3229,1.6853,1.7543,0.00034001,0.011062,-0.10899
4.191,-1.7127,-1.3242,1.6869,1.7487,0.00034001,0.011062,-0.10899
4.2211,-1.7164,-1.3256,1.6885,1.7431,0.00034001,0.011062,-0.10899
4.2513,-1.7201,-1.3269,1.69,1.7376,0.00034001,0.011062,-0.10899
4.2814,-1.7238,-1.3282,1.6915,1.7323,0.00034001,0.011062,-0.10899
4.3116,-1.7274,-1.3294,1.6929,1.727,0.00034001,0.011062,-0.10899
4.3417,-1.7309,-1.3307,1.6944,1.7217,0.00034001,0.011062,-0.10899
4.3719,-1.7344,-1.3319,1.6958,1.7166,0.00034001,0.011062,-0.10899
4.402,-1.7378,-1.3331,1.6971,1.7116,0.00034001,0.011062,-0.10899
4.4322,-1.7411,-1.3343,1.6984,1.7066,0.00034001,0.011062,-0.10899
4.4623,-1.7444,-1.3354,1.6997,1.7017,0.00034001,0.011062,-0.10899
4.4925,-1.7477,-1.3365,1.701,1.6969,0.00034001,0.011062,-0.10899
4.5226,-1.7508,-1.3376,1.7022,1.6922,0.00034001,0.011062,-0.10899
4.5528,-1.754,-1.3387,1.7034,1.6876,0.00034001,0.011062,-0.10899
4.5829,-1.757,-1.3398,1.7046,1.683,0.00034001,0.011062,-0.10899
4.6131,-1.76,-1.3408,1.7057,1.6785,0.00034001,0.011062,-0.10899
4.6432,-1.763,-1.3418,1.7068,1.6741,0.00034001,0.011062,-0.10899
4.6734,-1.7659,-1.3428,1.7079,1.6698,0.00034001,0.011062,-0.10899
4.7035,-1.7687,-1.3438,1.7089,1.6656,0.00034001,0.011062,-0.10899
4.7337,-1.7715,-1.3447,1.7099,1.6615,0.00034001,0.011062,-0.10899
4.7638,-1.7742,-1.3456,1.7109,1.6574,0.00034001,0.011062,-0.10899
4.794,-1.7769,-1.3465,1.7119,1.6534,0.00034001,0.011062,-0.10899
4.8241,-1.7795,-1.3474,1.7128,1.6495,0.00034001,0.011062,-0.10899
4.8543,-1.7821,-1.3483,1.7138,1.6457,0.00034001,0.011062,-0.10899
4.8844,-1.7846,-1.3491,1.7146,1.6419,0.00034001,0.011062,-0.10899
4.9146,-1.787,-1.35,1.7155,1.6383,0.00034001,0.011062,-0.10899
4.9447,-1.7895,-1.3508,1.7163,1.6347,0.00034001,0.011062,-0.10899
4.9749,-1.7918,-1.3516,1.7172,1.6312,0.00034001,0.011062,-0.10899
5.005,-1.7941,-1.3523,1.7179,1.6277,0.00034001,0.011062,-0.10899
5.0352,-1.7964,-1.3531,1.7187,1.6243,0.00034001,0.011062,-0.10899
5.0653,-1.7986,-1.3538,1.7195,1.621,0.00034001,0.011062,-0.10899
5.0955,-1.8007,-1.3545,1.7202,1.6178,0.00034001,0.011062,-0.10899
5.1256,-1.8028,-1.3552,1.7209,1.6147,0.00034001,0.011062,-0.10899
5.1558,-1.8049,-1.3559,1.7216,1.6116,0.00034001,0.011062,-0.10899
5.1859,-1.8069,-1.3566,1.7223,1.6086,0.00034001,0.011062,-0.10899
5.2161,-1.8089,-1.3572,1.7229,1.6056,0.00034001,0.011062,-0.10899
5.2462,-1.8108,-1.3578,1.7235,1.6027,0.00034001,0.011062,-0.10899
5.2764,-1.8127,-1.3585,1.7241,1.5999,0.00034001,0.011062,-0.10899
5.3065,-1.8145,-1.3591,1.7247,1.5972,0.00034001,0.011062,-0.10899
5.3367,-1.8163,-1.3596,1.7253,1.5945,0.00034001,0.011062,-0.10899
5.3668,-1.8181,-1.3602,1.7259,1.5919,0.00034001,0.011062,-0.10899
5.397,-1.8198,-1.3608,1.7264,1.5893,0.00034001,0.011062,-0.10899
5.4271,-1.8214,-1.3613,1.7269,1.5868,0.00034001,0.011062,-0.10899
5.4573,-1.823,-1.3618,1.7274,1.5844,0.00034001,0.011062,-0.10899
5.4874,-1.8246,-1.3623,1.7279,1.582,0.00034001,0.011062,-0.10899
5.5176,-1.8262,-1.3628,1.7284,1.5797,0.00034001,0.011062,-0.10899
5.5477,-1.8277,-1.3633,1.7289,1.5774,0.00034001,0.011062,-0.10899
5.5779,-1.8291,-1.3638,1.7293,1.5752,0.00034001,0.011062,-0.10899
5.608,-1.8306,-1.3643,1.7298,1.573,0.00034001,0.011062,-0.10899
5.6382,-1.832,-1.3647,1.7302,1.5709,0.00034001,0.011062,-0.10899
5.6683,-1.8333,-1.3651,1.7306,1.5689,0.00034001,0.011062,-0.10899
5.6985,-1.8347,-1.3656,1.731,1.5669,0.00034001,0.011062,-0.10899
5.7286,-1.836,-1.366,1.7314,1.565,0.00034001,0.011062,-0.10899
5.7588,-1.8372,-1.3664,1.7318,1.5631,0.00034001,0.011062,-0.10899
5.7889,-1.8384,-1.3668,1.7321,1.5612,0.00034001,0.011062,-0.10899
5.8191,-1.8396,-1.3672,1.7325,1.5594,0.00034001,0.011062,-0.10899
5.8492,-1.8408,-1.3675,1.7328,1.5577,0.00034001,0.011062,-0.10899
5.8794,-1.8419,-1.3679,1.7332,1.556,0.00034001,0.011062,-0.10899
5.9095,-1.843,-1.3682,1.7335,1.5543,0.00034001,0.011062,-0.10899
5.9397,-1.8441,-1.3686,1.7338,1.5527,0.00034001,0.011062,-0.10899
5.9698,-1.8451,-1.3689,1.7341,1.5511,0.00034001,0.011062,-0.10899
6,-1.8461,-1.3692,1.7344,1.5496,0.00034001,0.011062,-0.10899
