0,-0.14609,-0.58705,0.18977,2.8645,0.00034001,0.011062,-0.10899
0.030151,-0.16127,-0.59375,0.20553,2.8593,0.00034001,0.011062,-0.10899
0.060302,-0.18182,-0.60283,0.22687,2.8521,0.00034001,0.011062,-0.10899
0.090452,-0.20657,-0.61378,0.25257,2.8435,0.00034001,0.011062,-0.10899
0.1206,-0.23452,-0.62615,0.28161,2.8338,0.00034001,0.011062,-0.10899
0.15075,-0.26483,-0.63959,0.31311,2.8231,0.00034001,0.011062,-0.10899
0.1809,-0.29681,-0.65378,0.34637,2.8118,0.00034001,0.011062,-0.10899
0.21106,-0.32989,-0.66849,0.38079,2.8001,0.00034001,0.011062,-0.10899
0.24121,-0.36359,-0.68349,0.41586,2.788,0.00034001,0.011062,-0.10899
0.27136,-0.3975,-0.69862,0.45119,2.7758,0.00034001,0.011062,-0.10899
0.30151,-0.43132,-0.71373,0.48644,2.7636,0.00034001,0.011062,-0.10899
0.33166,-0.46479,-0.72871,0.52134,2.7514,0.00034001,0.011062,-0.10899
0.36181,-0.49771,-0.74348,0.55569,2.7393,0.00034001,0.011062,-0.10899
0.39196,-0.5299,-0.75796,0.58932,2.7273,0.00034001,0.011062,-0.10899
0.42211,-0.56126,-0.7721,0.6221,2.7155,0.00034001,0.011062,-0.10899
0.45226,-0.59169,-0.78586,0.65394,2.704,0.00034001,0.011062,-0.10899
0.48241,-0.62112,-0.79921,0.68477,2.6927,0.00034001,0.011062,-0.10899
0.51256,-0.64951,-0.81212,0.71454,2.6817,0.00034001,0.011062,-0.10899
0.54271,-0.67684,-0.8246,0.74323,2.671,0.00034001,0.011062,-0.10899
0.57286,-0.7031,-0.83663,0.77083,2.6605,0.00034001,0.011062,-0.10899
0.60302,-0.72829,-0.84822,0.79734,2.6504,0.00034001,0.011062,-0.10899
0.63317,-0.75242,-0.85937,0.82277,2.6405,0.00034001,0.011062,-0.10899
0.66332,-0.77551,-0.87008,0.84715,2.6308,0.00034001,0.011062,-0.10899
0.69347,-0.79759,-0.88038,0.87049,2.6215,0.00034001,0.011062,-0.10899
0.72362,-0.8187,-0.89027,0.89284,2.6124,0.00034001,0.011062,-0.10899
0.75377,-0.83886,-0.89977,0.91423,2.6035,0.00034001,0.011062,-0.10899
0.78392,-0.85811,-0.9089,0.9347,2.5949,0.00034001,0.011062,-0.10899
0.81407,-0.87649,-0.91767,0.95428,2.5864,0.00034001,0.011062,-0.10899
0.84422,-0.89405,-0.9261,0.97302,2.5782,0.00034001,0.011062,-0.10899
0.87437,-0.91081,-0.93421,0.99096,2.5702,0.00034001,0.011062,-0.10899
0.90452,-0.92684,-0.94201,1.0081,2.5623,0.00034001,0.011062,-0.10899
0.93467,-0.94216,-0.94952,1.0246,2.5546,0.00034001,0.011062,-0.10899
0.96482,-0.95681,-0.95677,1.0404,2.5471,0.00034001,0.011062,-0.10899
0.99497,-0.97084,-0.96376,1.0556,2.5397,0.00034001,0.011062,-0.10899
1.0251,-0.98428,-0.97052,1.0701,2.5324,0.00034001,0.011062,-0.10899
1.0553,-0.99717,-0.97706,1.0842,2.5252,0.00034001,0.011062,-0.10899
1.0854,-1.0095,-0.98339,1.0976,2.5182,0.00034001,0.011062,-0.10899
1.1156,-1.0214,-0.98953,1.1107,2.5112,0.00034001,0.011062,-0.10899
1.1457,-1.0329,-0.9955,1.1232,2.5043,0.00034001,0.011062,-0.10899
1.1759,-1.0439,-1.0013,1.1353,2.4974,0.00034001,0.011062,-0.10899
1.206,-1.0545,-1.007,1.1471,2.4906,0.00034001,0.011062,-0.10899
1.2362,-1.0648,-1.0125,1.1585,2.4839,0.00034001,0.011062,-0.10899
1.2663,-1.0748,-1.0179,1.1695,2.4772,0.00034001,0.011062,-0.10899
1.2965,-1.0844,-1.0231,1.1802,2.4705,0.00034001,0.011062,-0.10899
1.3266,-1.0938,-1.0283,1.1907,2.4638,0.00034001,0.011062,-0.10899
1.3568,-1.1029,-1.0334,1.2009,2.4572,0.00034001,0.011062,-0.10899
1.3869,-1.1117,-1.0384,1.2109,2.4506,0.00034001,0.011062,-0.10899
1.4171,-1.1204,-1.0433,1.2206,2.4439,0.00034001,0.011062,-0.10899
1.4472,-1.1288,-1.0482,1.2301,2.4373,0.00034001,0.011062,-0.10899
1.4774,-1.137,-1.053,1.2395,2.4306,0.00034001,0.011062,-0.10899
1.5075,-1.1451,-1.0577,1.2487,2.4239,0.00034001,0.011062,-0.10899
1.5377,-1.1531,-1.0624,1.2577,2.4172,0.00034001,0.011062,-0.10899
1.5678,-1.1609,-1.067,1.2666,2.4105,0.00034001,0.011062,-0.10899
1.598,-1.1685,-1.0716,1.2754,2.4038,0.00034001,0.011062,-0.10899
1.6281,-1.1761,-1.0762,1.2841,2.397,0.00034001,0.011062,-0.10899
1.6583,-1.1836,-1.0808,1.2927,2.3901,0.00034001,0.011062,-0.10899
1.6884,-1.191,-1.0853,1.3012,2.3832,0.00034001,0.011062,-0.10899
1.7186,-1.1983,-1.0898,1.3096,2.3763,0.00034001,0.011062,-0.10899
1.7487,-1.2055,-1.0943,1.3179,2.3694,0.00034001,0.011062,-0.10899
1.7789,-1.2127,-1.0988,1.3262,2.3623,0.00034001,0.011062,-0.10899
1.809,-1.2198,-1.1033,1.3344,2.3552,0.00034001,0.011062,-0.10899
1.8392,-1.2268,-1.1077,1.3426,2.3481,0.00034001,0.011062,-0.10899
1.8693,-1.2339,-1.1122,1.3507,2.3409,0.00034001,0.011062,-0.10899
1.8995,-1.2409,-1.1167,1.3588,2.3337,0.00034001,0.011062,-0.10899
1.9296,-1.2479,-1.1212,1.3669,2.3264,0.00034001,0.011062,-0.10899
1.9598,-1.2548,-1.1256,1.375,2.319,0.00034001,0.011062,-0.10899
1.9899,-1.2617,-1.1301,1.383,2.3116,0.00034001,0.011062,-0.10899
2.0201,-1.2686,-1.1346,1.391,2.3041,0.00034001,0.011062,-0.10899
2.0503,-1.2756,-1.1391,1.399,2.2965,0.00034001,0.011062,-0.10899
2.0804,-1.2824,-1.1436,1.407,2.2889,0.00034001,0.011062,-0.10899
2.1106,-1.2893,-1.1481,1.4149,2.2812,0.00034001,0.011062,-0.10899
2.1407,-1.2962,-1.1526,1.4229,2.2735,0.00034001,0.011062,-0.10899
2.1709,-1.3031,-1.1572,1.4308,2.2657,0.00034001,0.011062,-0.10899
2.201,-1.31,-1.1617,1.4388,2.2578,0.00034001,0.011062,-0.10899
2.2312,-1.3169,-1.1663,1.4467,2.2499,0.00034001,0.011062,-0.10899
2.2613,-1.3238,-1.1708,1.4547,2.2419,0.00034001,0.011062,-0.10899
2.2915,-1.3307,-1.1754,1.4626,2.2338,0.00034001,0.011062,-0.10899
2.3216,-1.3376,-1.18,1.4705,2.2257,0.00034001,0.011062,-0.10899
2.3518,-1.3445,-1.1846,1.4784,2.2176,0.00034001,0.011062,-0.10899
2.3819,-1.3515,-1.1892,1.4863,2.2094,0.00034001,0.011062,-0.10899
2.4121,-1.3584,-1.1938,1.4942,2.2011,0.00034001,0.011062,-0.10899
2.4422,-1.3653,-1.1984,1.5021,2.1928,0.00034001,0.011062,-0.10899
2.4724,-1.3723,-1.203,1.51,2.1844,0.00034001,0.011062,-0.10899
2.5025,-1.3792,-1.2077,1.5179,2.176,0.00034001,0.011062,-0.10899
2.5327,-1.3862,-1.2123,1.5258,2.1675,0.00034001,0.011062,-0.10899
2.5628,-1.3931,-1.2169,1.5337,2.159,0.00034001,0.011062,-0.10899
2.593,-1.4001,-1.2216,1.5415,2.1504,0.00034001,0.011062,-0.10899
2.6231,-1.4071,-1.2262,1.5494,2.1418,0.00034001,0.011062,-0.10899
2.6533,-1.414,-1.2309,1.5572,2.1332,0.00034001,0.011062,-0.10899
2.6834,-1.421,-1.2355,1.565,2.1245,0.00034001,0.011062,-0.10899
2.7136,-1.428,-1.2402,1.5728,2.1158,0.00034001,0.011062,-0.10899
2.7437,-1.435,-1.2448,1.5805,2.107,0.00034001,0.011062,-0.10899
2.7739,-1.4419,-1.2495,1.5883,2.0982,0.00034001,0.011062,-0.10899
2.804,-1.4489,-1.2541,1.596,2.0894,0.00034001,0.011062,-0.10899
2.8342,-1.4558,-1.2587,1.6037,2.0806,0.00034001,0.011062,-0.10899
2.8643,-1.4628,-1.2634,1.6113,2.0717,0.00034001,0.011062,-0.10899
2.8945,-1.4697,-1.268,1.619,2.0629,0.00034001,0.011062,-0.10899
2.9246,-1.4767,-1.2726,1.6266,2.054,0.00034001,0.011062,-0.10899
2.9548,-1.4836,-1.2772,1.6341,2.0451,0.00034001,0.011062,-0.10899
2.9849,-1.4905,-1.2818,1.6417,2.0362,0.00034001,0.011062,-0.10899
3.0151,-1.4974,-1.2863,1.6492,2.0272,0.00034001,0.011062,-0.10899
3.0452,-1.5042,-1.2909,1.6566,2.0183,0.00034001,0.011062,-0.10899
3.0754,-1.5111,-1.2954,1.664,2.0094,0.00034001,0.011062,-0.10899
3.1055,-1.5179,-1.3,1.6714,2.0004,0.00034001,0.011062,-0.10899
3.1357,-1.5247,-1.3045,1.6787,1.9915,0.00034001,0.011062,-0.10899
3.1658,-1.5315,-1.309,1.686,1.9826,0.00034001,0.011062,-0.10899
3.196,-1.5382,-1.3134,1.6932,1.9737,0.00034001,0.011062,-0.10899
3.2261,-1.5449,-1.3179,1.7003,1.9648,0.00034001,0.011062,-0.10899
3.2563,-1.5516,-1.3223,1.7074,1.9559,0.00034001,0.011062,-0.10899
3.2864,-1.5583,-1.3267,1.7145,1.947,0.00034001,0.011062,-0.10899
3.3166,-1.5649,-1.331,1.7215,1.9382,0.00034001,0.011062,-0.10899
3.3467,-1.5715,-1.3354,1.7284,1.9294,0.00034001,0.011062,-0.10899
3.3769,-1.578,-1.3397,1.7353,1.9206,0.00034001,0.011062,-0.10899
3.407,-1.5846,-1.344,1.7421,1.9118,0.00034001,0.011062,-0.10899
3.4372,-1.591,-1.3482,1.7489,1.903,0.00034001,0.011062,-0.10899
3.4673,-1.5974,-1.3524,1.7556,1.8943,0.00034001,0.011062,-0.10899
3.4975,-1.6038,-1.3566,1.7622,1.8857,0.00034001,0.011062,-0.10899
3.5276,-1.6101,-1.3608,1.7688,1.8771,0.00034001,0.011062,-0.10899
3.5578,-1.6164,-1.3649,1.7752,1.8685,0.00034001,0.011062,-0.10899
3.5879,-1.6227,-1.3689,1.7817,1.86,0.00034001,0.011062,-0.10899
3.6181,-1.6288,-1.373,1.788,1.8515,0.00034001,0.011062,-0.10899
3.6482,-1.635,-1.377,1.7943,1.843,0.00034001,0.011062,-0.10899
3.6784,-1.641,-1.381,1.8005,1.8347,0.00034001,0.011062,-0.10899
3.7085,-1.647,-1.3849,1.8066,1.8263,0.00034001,0.011062,-0.10899
3.7387,-1.653,-1.3888,1.8126,1.8181,0.00034001,0.011062,-0.10899
3.7688,-1.6589,-1.3926,1.8186,1.8099,0.00034001,0.011062,-0.10899
3.799,-1.6647,-1.3964,1.8245,1.8017,0.00034001,0.011062,-0.10899
3.8291,-1.6705,-1.4002,1.8303,1.7937,0.00034001,0.011062,-0.10899
3.8593,-1.6762,-1.4039,1.8361,1.7857,0.00034001,0.011062,-0.10899
3.8894,-1.6819,-1.4075,1.8417,1.7777,0.00034001,0.011062,-0.10899
3.9196,-1.6875,-1.4112,1.8473,1.7699,0.00034001,0.011062,-0.10899
3.9497,-1.693,-1.4148,1.8528,1.7621,0.00034001,0.011062,-0.10899
3.9799,-1.6985,-1.4183,1.8582,1.7544,0.00034001,0.011062,-0.10899
4.0101,-1.7039,-1.4218,1.8635,1.7468,0.00034001,0.011062,-0.10899
4.0402,-1.7092,-1.4252,1.8688,1.7392,0.00034001,0.011062,-0.10899
4.0704,-1.7145,-1.4286,1.874,1.7318,0.00034001,0.011062,-0.10899
4.1005,-1.7196,-1.432,1.8791,1.7244,0.00034001,0.011062,-0.10899
4.1307,-1.7248,-1.4353,1.8841,1.7171,0.00034001,0.011062,-0.10899
4.1608,-1.7298,-1.4385,1.889,1.7099,0.00034001,0.011062,-0.10899
4.191,-1.7348,-1.4417,1.8939,1.7027,0.00034001,0.011062,-0.10899
4.2211,-1.7397,-1.4449,1.8986,1.6957,0.00034001,0.011062,-0.10899
4.2513,-1.7445,-1.448,1.9033,1.6887,0.00034001,0.011062,-0.10899
4.2814,-1.7493,-1.4511,1.9079,1.6819,0.00034001,0.011062,-0.10899
4.3116,-1.754,-1.4541,1.9125,1.6751,0.00034001,0.011062,-0.10899
4.3417,-1.7586,-1.457,1.9169,1.6685,0.00034001,0.011062,-0.10899
4.3719,-1.7631,-1.46,1.9213,1.6619,0.00034001,0.011062,-0.10899
4.402,-1.7676,-1.4628,1.9256,1.6554,0.00034001,0.011062,-0.10899
4.4322,-1.772,-1.4656,1.9298,1.649,0.00034001,0.011062,-0.10899
4.4623,-1.7763,-1.4684,1.9339,1.6427,0.00034001,0.011062,-0.10899
4.4925,-1.7806,-1.4711,1.938,1.6365,0.00034001,0.011062,-0.10899
4.5226,-1.7848,-1.4738,1.9419,1.6304,0.00034001,0.011062,-0.10899
4.5528,-1.7889,-1.4764,1.9458,1.6244,0.00034001,0.011062,-0.10899
4.5829,-1.7929,-1.479,1.9496,1.6185,0.00034001,0.011062,-0.10899
4.6131,-1.7969,-1.4815,1.9534,1.6127,0.00034001,0.011062,-0.10899
4.6432,-1.8008,-1.484,1.9571,1.607,0.00034001,0.011062,-0.10899
4.6734,-1.8046,-1.4865,1.9606,1.6014,0.00034001,0.011062,-0.10899
4.7035,-1.8084,-1.4888,1.9642,1.5958,0.00034001,0.011062,-0.10899
4.7337,-1.812,-1.4912,1.9676,1.5904,0.00034001,0.011062,-0.10899
4.7638,-1.8156,-1.4935,1.971,1.5851,0.00034001,0.011062,-0.10899
4.794,-1.8192,-1.4957,1.9743,1.5799,0.00034001,0.011062,-0.10899
4.8241,-1.8227,-1.4979,1.9775,1.5747,0.00034001,0.011062,-0.10899
4.8543,-1.8261,-1.5001,1.9807,1.5697,0.00034001,0.011062,-0.10899
4.8844,-1.8294,-1.5022,1.9838,1.5647,0.00034001,0.011062,-0.10899
4.9146,-1.8327,-1.5043,1.9868,1.5599,0.00034001,0.011062,-0.10899
4.9447,-1.8359,-1.5063,1.9897,1.5551,0.00034001,0.011062,-0.10899
4.9749,-1.839,-1.5083,1.9926,1.5505,0.00034001,0.011062,-0.10899
5.005,-1.8421,-1.5102,1.9955,1.5459,0.00034001,0.011062,-0.10899
5.0352,-1.8451,-1.5121,1.9982,1.5414,0.00034001,0.011062,-0.10899
5.0653,-1.848,-1.514,2.0009,1.537,0.00034001,0.011062,-0.10899
5.0955,-1.8509,-1.5158,2.0036,1.5327,0.00034001,0.011062,-0.10899
5.1256,-1.8537,-1.5176,2.0061,1.5285,0.00034001,0.011062,-0.10899
5.1558,-1.8564,-1.5193,2.0086,1.5244,0.00034001,0.011062,-0.10899
5.1859,-1.8591,-1.521,2.0111,1.5204,0.00034001,0.011062,-0.10899
5.2161,-1.8617,-1.5227,2.0135,1.5164,0.00034001,0.011062,-0.10899
5.2462,-1.8643,-1.5243,2.0158,1.5126,0.00034001,0.011062,-0.10899
5.2764,-1.8668,-1.5259,2.0181,1.5088,0.00034001,0.011062,-0.10899
5.3065,-1.8693,-1.5274,2.0203,1.5051,0.00034001,0.011062,-0.10899
5.3367,-1.8717,-1.529,2.0225,1.5015,0.00034001,0.011062,-0.10899
5.3668,-1.874,-1.5304,2.0246,1.498,0.00034001,0.011062,-0.10899
5.397,-1.8763,-1.5319,2.0267,1.4945,0.00034001,0.011062,-0.10899
5.4271,-1.8785,-1.5333,2.0287,1.4911,0.00034001,0.011062,-0.10899
5.4573,-1.8807,-1.5346,2.0306,1.4879,0.00034001,0.011062,-0.10899
5.4874,-1.8828,-1.536,2.0326,1.4846,0.00034001,0.011062,-0.10899
5.5176,-1.8849,-1.5373,2.0344,1.4815,0.00034001,0.011062,-0.10899
5.5477,-1.8869,-1.5386,2.0362,1.4784,0.00034001,0.011062,-0.10899
5.5779,-1.8889,-1.5398,2.038,1.4754,0.00034001,0.011062,-0.10899
5.608,-1.8908,-1.541,2.0397,1.4725,0.00034001,0.011062,-0.10899
5.6382,-1.8927,-1.5422,2.0414,1.4697,0.00034001,0.011062,-0.10899
5.6683,-1.8945,-1.5433,2.043,1.4669,0.00034001,0.011062,-0.10899
5.6985,-1.8963,-1.5445,2.0446,1.4642,0.00034001,0.011062,-0.10899
5.7286,-1.898,-1.5455,2.0462,1.4615,0.00034001,0.011062,-0.10899
5.7588,-1.8997,-1.5466,2.0477,1.459,0.00034001,0.011062,-0.10899
5.7889,-1.9014,-1.5476,2.0491,1.4565,0.00034001,0.011062,-0.10899
5.8191,-1.903,-1.5486,2.0506,1.454,0.00034001,0.011062,-0.10899
5.8492,-1.9045,-1.5496,2.052,1.4516,0.00034001,0.011062,-0.10899
5.8794,-1.9061,-1.5506,2.0533,1.4493,0.00034001,0.011062,-0.10899
5.9095,-1.9075,-1.5515,2.0546,1.447,0.00034001,0.011062,-0.10899
5.9397,-1.909,-1.5524,2.0559,1.4448,0.00034001,0.011062,-0.10899
5.9698,-1.9104,-1.5533,2.0572,1.4427,0.00034001,0.011062,-0.10899
6,-1.9118,-1.5542,2.0584,1.4406,0.00034001,0.011062,-0.10899
