0,-0.14659,-0.58785,0.19022,2.8645,0.00034001,0.011062,-0.10899
0.030151,-0.16266,-0.59598,0.20676,2.8593,0.00034001,0.011062,-0.10899
0.060302,-0.18443,-0.607,0.22916,2.8522,0.00034001,0.011062,-0.10899
0.090452,-0.21062,-0.62026,0.25612,2.8437,0.00034001,0.011062,-0.10899
0.1206,-0.24019,-0.63524,0.28657,2.8339,0.00034001,0.011062,-0.10899
0.15075,-0.27225,-0.6515,0.31959,2.8233,0.00034001,0.011062,-0.10899
0.1809,-0.30607,-0.66865,0.35443,2.8121,0.00034001,0.011062,-0.10899
0.21106,-0.34103,-0.6864,0.39046,2.8004,0.00034001,0.011062,-0.10899
0.24121,-0.37663,-0.70448,0.42715,2.7884,0.00034001,0.011062,-0.10899
0.27136,-0.41244,-0.72268,0.46408,2.7763,0.00034001,0.011062,-0.10899
0.30151,-0.44814,-0.74084,0.5009,2.7641,0.00034001,0.011062,-0.10899
0.33166,-0.48345,-0.75882,0.53733,2.7519,0.00034001,0.011062,-0.10899
0.36181,-0.51814,-0.7765,0.57315,2.7399,0.00034001,0.011062,-0.10899
0.39196,-0.55206,-0.79381,0.60818,2.728,0.00034001,0.011062,-0.10899
0.42211,-0.58507,-0.81067,0.64229,2.7163,0.00034001,0.011062,-0.10899
0.45226,-0.61708,-0.82704,0.67538,2.7048,0.00034001,0.011062,-0.10899
0.48241,-0.64801,-0.84288,0.70737,2.6935,0.00034001,0.011062,-0.10899
0.51256,-0.67783,-0.85817,0.73823,2.6826,0.00034001,0.011062,-0.10899
0.54271,-0.7065,-0.8729,0.76792,2.6719,0.00034001,0.011062,-0.10899
0.57286,-0.73402,-0.88705,0.79644,2.6615,0.00034001,0.011062,-0.10899
0.60302,-0.76038,-0.90064,0.82378,2.6513,0.00034001,0.011062,-0.10899
0.63317,-0.78561,-0.91367,0.84997,2.6415,0.00034001,0.011062,-0.10899
0.66332,-0.80972,-0.92615,0.87501,2.6319,0.00034001,0.011062,-0.10899
0.69347,-0.83275,-0.93809,0.89895,2.6225,0.00034001,0.011062,-0.10899
0.72362,-0.85471,-0.94951,0.92181,2.6134,0.00034001,0.011062,-0.10899
0.75377,-0.87567,-0.96044,0.94363,2.6046,0.00034001,0.011062,-0.10899
0.78392,-0.89564,-0.97087,0.96446,2.596,0.00034001,0.011062,-0.10899
0.81407,-0.91468,-0.98085,0.98433,2.5876,0.00034001,0.011062,-0.10899
0.84422,-0.93283,-0.99039,1.0033,2.5794,0.00034001,0.011062,-0.10899
0.87437,-0.95012,-0.99952,1.0214,2.5713,0.00034001,0.011062,-0.10899
0.90452,-0.96661,-1.0082,1.0387,2.5635,0.00034001,0.011062,-0.10899
0.93467,-0.98234,-1.0166,1.0552,2.5558,0.00034001,0.011062,-0.10899
0.96482,-0.99735,-1.0246,1.0709,2.5483,0.00034001,0.011062,-0.10899
0.99497,-1.0117,-1.0323,1.086,2.5409,0.00034001,0.011062,-0.10899
1.0251,-1.0254,-1.0396,1.1004,2.5336,0.00034001,0.011062,-0.10899
1.0553,-1.0385,-1.0467,1.1142,2.5264,0.00034001,0.011062,-0.10899
1.0854,-1.051,-1.0535,1.1275,2.5193,0.00034001,0.011062,-0.10899
1.1156,-1.063,-1.06,1.1402,2.5123,0.00034001,0.011062,-0.10899
1.1457,-1.0745,-1.0663,1.1524,2.5054,0.00034001,0.011062,-0.10899
1.1759,-1.0856,-1.0724,1.1641,2.4986,0.00034001,0.011062,-0.10899
1.206,-1.0962,-1.0783,1.1754,2.4918,0.00034001,0.011062,-0.10899
1.2362,-1.1065,-1.084,1.1863,2.485,0.00034001,0.011062,-0.10899
1.2663,-1.1164,-1.0895,1.1969,2.4783,0.00034001,0.011062,-0.10899
1.2965,-1.1259,-1.0949,1.207,2.4716,0.00034001,0.011062,-0.10899
1.3266,-1.1351,-1.1001,1.2169,2.4649,0.00034001,0.011062,-0.10899
1.3568,-1.1441,-1.1051,1.2265,2.4583,0.00034001,0.011062,-0.10899
1.3869,-1.1528,-1.1101,1.2357,2.4516,0.00034001,0.011062,-0.10899
1.4171,-1.1612,-1.1149,1.2448,2.445,0.00034001,0.011062,-0.10899
1.4472,-1.1694,-1.1196,1.2536,2.4383,0.00034001,0.011062,-0.10899
1.4774,-1.1774,-1.1243,1.2622,2.4316,0.00034001,0.011062,-0.10899
1.5075,-1.1852,-1.1288,1.2706,2.4249,0.00034001,0.011062,-0.10899
1.5377,-1.1928,-1.1333,1.2788,2.4182,0.00034001,0.011062,-0.10899
1.5678,-1.2003,-1.1377,1.2868,2.4115,0.00034001,0.011062,-0.10899
1.598,-1.2077,-1.142,1.2947,2.4047,0.00034001,0.011062,-0.10899
1.6281,-1.2149,-1.1462,1.3025,2.3979,0.00034001,0.011062,-0.10899
1.6583,-1.222,-1.1505,1.3101,2.391,0.00034001,0.011062,-0.10899
1.6884,-1.229,-1.1546,1.3177,2.3841,0.00034001,0.011062,-0.10899
1.7186,-1.2359,-1.1588,1.3251,2.3772,0.00034001,0.011062,-0.10899
1.7487,-1.2427,-1.1628,1.3324,2.3702,0.00034001,0.011062,-0.10899
1.7789,-1.2494,-1.1669,1.3396,2.3631,0.00034001,0.011062,-0.10899
1.809,-1.2561,-1.1709,1.3468,2.356,0.00034001,0.011062,-0.10899
1.8392,-1.2627,-1.1749,1.3539,2.3489,0.00034001,0.011062,-0.10899
1.8693,-1.2693,-1.1789,1.3609,2.3417,0.00034001,0.011062,-0.10899
1.8995,-1.2758,-1.1829,1.3679,2.3344,0.00034001,0.011062,-0.10899
1.9296,-1.2823,-1.1869,1.3749,2.327,0.00034001,0.011062,-0.10899
1.9598,-1.2888,-1.1908,1.3817,2.3197,0.00034001,0.011062,-0.10899
1.9899,-1.2952,-1.1947,1.3886,2.3122,0.00034001,0.011062,-0.10899
2.0201,-1.3016,-1.1986,1.3954,2.3047,0.00034001,0.011062,-0.10899
2.0503,-1.308,-1.2026,1.4021,2.2971,0.00034001,0.011062,-0.10899
2.0804,-1.3144,-1.2065,1.4089,2.2895,0.00034001,0.011062,-0.10899
2.1106,-1.3208,-1.2104,1.4156,2.2817,0.00034001,0.011062,-0.10899
2.1407,-1.3271,-1.2143,1.4223,2.274,0.00034001,0.011062,-0.10899
2.1709,-1.3335,-1.2182,1.4289,2.2661,0.00034001,0.011062,-0.10899
2.201,-1.3398,-1.2221,1.4356,2.2583,0.00034001,0.011062,-0.10899
2.2312,-1.3462,-1.226,1.4422,2.2503,0.00034001,0.011062,-0.10899
2.2613,-1.3525,-1.2299,1.4488,2.2423,0.00034001,0.011062,-0.10899
2.2915,-1.3589,-1.2338,1.4554,2.2342,0.00034001,0.011062,-0.10899
2.3216,-1.3652,-1.2377,1.4619,2.2261,0.00034001,0.011062,-0.10899
2.3518,-1.3716,-1.2416,1.4685,2.2179,0.00034001,0.011062,-0.10899
2.3819,-1.378,-1.2455,1.475,2.2096,0.00034001,0.011062,-0.10899
2.4121,-1.3843,-1.2494,1.4815,2.2013,0.00034001,0.011062,-0.10899
2.4422,-1.3907,-1.2533,1.488,2.193,0.00034001,0.011062,-0.10899
2.4724,-1.3971,-1.2572,1.4945,2.1846,0.00034001,0.011062,-0.10899
2.5025,-1.4035,-1.2611,1.5009,2.1761,0.00034001,0.011062,-0.10899
2.5327,-1.4099,-1.265,1.5074,2.1676,0.00034001,0.011062,-0.10899
2.5628,-1.4163,-1.2689,1.5138,2.1591,0.00034001,0.011062,-0.10899
2.593,-1.4227,-1.2728,1.5202,2.1505,0.00034001,0.011062,-0.10899
2.6231,-1.4291,-1.2767,1.5265,2.1419,0.00034001,0.011062,-0.10899
2.6533,-1.4355,-1.2806,1.5329,2.1332,0.00034001,0.011062,-0.10899
2.6834,-1.4419,-1.2845,1.5392,2.1245,0.00034001,0.011062,-0.10899
2.7136,-1.4483,-1.2884,1.5455,2.1158,0.00034001,0.011062,-0.10899
2.7437,-1.4548,-1.2923,1.5518,2.107,0.00034001,0.011062,-0.10899
2.7739,-1.4612,-1.2961,1.558,2.0982,0.00034001,0.011062,-0.10899
2.804,-1.4676,-1.3,1.5642,2.0893,0.00034001,0.011062,-0.10899
2.8342,-1.474,-1.3039,1.5704,2.0805,0.00034001,0.011062,-0.10899
2.8643,-1.4804,-1.3077,1.5766,2.0716,0.00034001,0.011062,-0.10899
2.8945,-1.4868,-1.3115,1.5827,2.0627,0.00034001,0.011062,-0.10899
2.9246,-1.4932,-1.3154,1.5888,2.0538,0.00034001,0.011062,-0.10899
2.9548,-1.4996,-1.3192,1.5948,2.0449,0.00034001,0.011062,-0.10899
2.9849,-1.506,-1.323,1.6008,2.0359,0.00034001,0.011062,-0.10899
3.0151,-1.5124,-1.3268,1.6068,2.027,0.00034001,0.011062,-0.10899
3.0452,-1.5187,-1.3306,1.6127,2.018,0.00034001,0.011062,-0.10899
3.0754,-1.5251,-1.3343,1.6186,2.0091,0.00034001,0.011062,-0.10899
3.1055,-1.5314,-1.3381,1.6245,2.0001,0.00034001,0.011062,-0.10899
3.1357,-1.5377,-1.3418,1.6303,1.9912,0.00034001,0.011062,-0.10899
3.1658,-1.544,-1.3455,1.636,1.9822,0.00034001,0.011062,-0.10899
3.196,-1.5503,-1.3492,1.6417,1.9733,0.00034001,0.011062,-0.10899
3.2261,-1.5565,-1.3528,1.6474,1.9644,0.00034001,0.011062,-0.10899
3.2563,-1.5627,-1.3565,1.653,1.9555,0.00034001,0.011062,-0.10899
3.2864,-1.5689,-1.3601,1.6585,1.9466,0.00034001,0.011062,-0.10899
3.3166,-1.5751,-1.3637,1.664,1.9377,0.00034001,0.011062,-0.10899
3.3467,-1.5812,-1.3673,1.6695,1.9289,0.00034001,0.011062,-0.10899
3.3769,-1.5873,-1.3708,1.6749,1.9201,0.00034001,0.011062,-0.10899
3.407,-1.5934,-1.3743,1.6802,1.9113,0.00034001,0.011062,-0.10899
3.4372,-1.5994,-1.3778,1.6855,1.9025,0.00034001,0.011062,-0.10899
3.4673,-1.6054,-1.3813,1.6907,1.8938,0.00034001,0.011062,-0.10899
3.4975,-1.6114,-1.3847,1.6958,1.8851,0.00034001,0.011062,-0.10899
3.5276,-1.6173,-1.3881,1.7009,1.8765,0.00034001,0.011062,-0.10899
3.5578,-1.6232,-1.3915,1.706,1.8679,0.00034001,0.011062,-0.10899
3.5879,-1.629,-1.3948,1.711,1.8594,0.00034001,0.011062,-0.10899
3.6181,-1.6348,-1.3981,1.7159,1.8509,0.00034001,0.011062,-0.10899
3.6482,-1.6405,-1.4014,1.7207,1.8424,0.00034001,0.011062,-0.10899
3.6784,-1.6462,-1.4046,1.7255,1.834,0.00034001,0.011062,-0.10899
3.7085,-1.6519,-1.4079,1.7302,1.8257,0.00034001,0.011062,-0.10899
3.7387,-1.6575,-1.411,1.7349,1.8174,0.00034001,0.011062,-0.10899
3.7688,-1.663,-1.4142,1.7395,1.8092,0.00034001,0.011062,-0.10899
3.799,-1.6685,-1.4173,1.744,1.8011,0.00034001,0.011062,-0.10899
3.8291,-1.674,-1.4203,1.7485,1.793,0.00034001,0.011062,-0.10899
3.8593,-1.6793,-1.4234,1.7529,1.785,0.00034001,0.011062,-0.10899
3.8894,-1.6847,-1.4264,1.7572,1.777,0.00034001,0.011062,-0.10899
3.9196,-1.6899,-1.4293,1.7615,1.7691,0.00034001,0.011062,-0.10899
3.9497,-1.6952,-1.4322,1.7657,1.7614,0.00034001,0.011062,-0.10899
3.9799,-1.7003,-1.4351,1.7698,1.7536,0.00034001,0.011062,-0.10899
4.0101,-1.7054,-1.4379,1.7739,1.746,0.00034001,0.011062,-0.10899
4.0402,-1.7104,-1.4408,1.7779,1.7384,0.00034001,0.011062,-0.10899
4.0704,-1.7154,-1.4435,1.7818,1.731,0.00034001,0.011062,-0.10899
4.1005,-1.7203,-1.4462,1.7856,1.7236,0.00034001,0.011062,-0.10899
4.1307,-1.7252,-1.4489,1.7894,1.7163,0.00034001,0.011062,-0.10899
4.1608,-1.7299,-1.4516,1.7932,1.709,0.00034001,0.011062,-0.10899
4.191,-1.7347,-1.4542,1.7968,1.7019,0.00034001,0.011062,-0.10899
4.2211,-1.7393,-1.4567,1.8004,1.6949,0.00034001,0.011062,-0.10899
4.2513,-1.7439,-1.4592,1.804,1.6879,0.00034001,0.011062,-0.10899
4.2814,-1.7484,-1.4617,1.8074,1.6811,0.00034001,0.011062,-0.10899
4.3116,-1.7529,-1.4642,1.8108,1.6743,0.00034001,0.011062,-0.10899
4.3417,-1.7573,-1.4666,1.8142,1.6676,0.00034001,0.011062,-0.10899
4.3719,-1.7616,-1.4689,1.8175,1.661,0.00034001,0.011062,-0.10899
4.402,-1.7658,-1.4713,1.8207,1.6545,0.00034001,0.011062,-0.10899
4.4322,-1.77,-1.4735,1.8238,1.6481,0.00034001,0.011062,-0.10899
4.4623,-1.7742,-1.4758,1.8269,1.6418,0.00034001,0.011062,-0.10899
4.4925,-1.7782,-1.478,1.8299,1.6356,0.00034001,0.011062,-0.10899
4.5226,-1.7822,-1.4801,1.8329,1.6295,0.00034001,0.011062,-0.10899
4.5528,-1.7861,-1.4823,1.8358,1.6235,0.00034001,0.011062,-0.10899
4.5829,-1.79,-1.4843,1.8386,1.6176,0.00034001,0.011062,-0.10899
4.6131,-1.7938,-1.4864,1.8414,1.6118,0.00034001,0.011062,-0.10899
4.6432,-1.7975,-1.4884,1.8441,1.6061,0.00034001,0.011062,-0.10899
4.6734,-1.8011,-1.4904,1.8468,1.6005,0.00034001,0.011062,-0.10899
4.7035,-1.8047,-1.4923,1.8494,1.5949,0.00034001,0.011062,-0.10899
4.7337,-1.8082,-1.4942,1.852,1.5895,0.00034001,0.011062,-0.10899
4.7638,-1.8117,-1.496,1.8544,1.5842,0.00034001,0.011062,-0.10899
4.794,-1.8151,-1.4978,1.8569,1.5789,0.00034001,0.011062,-0.10899
4.8241,-1.8184,-1.4996,1.8593,1.5738,0.00034001,0.011062,-0.10899
4.8543,-1.8216,-1.5014,1.8616,1.5688,0.00034001,0.011062,-0.10899
4.8844,-1.8248,-1.5031,1.8639,1.5638,0.00034001,0.011062,-0.10899
4.9146,-1.828,-1.5047,1.8661,1.559,0.00034001,0.011062,-0.10899
4.9447,-1.831,-1.5064,1.8683,1.5542,0.00034001,0.011062,-0.10899
4.9749,-1.834,-1.508,1.8704,1.5495,0.00034001,0.011062,-0.10899
5.005,-1.837,-1.5095,1.8725,1.545,0.00034001,0.011062,-0.10899
5.0352,-1.8399,-1.511,1.8745,1.5405,0.00034001,0.011062,-0.10899
5.0653,-1.8427,-1.5125,1.8765,1.5361,0.00034001,0.011062,-0.10899
5.0955,-1.8454,-1.514,1.8784,1.5318,0.00034001,0.011062,-0.10899
5.1256,-1.8481,-1.5154,1.8803,1.5276,0.00034001,0.011062,-0.10899
5.1558,-1.8508,-1.5168,1.8821,1.5235,0.00034001,0.011062,-0.10899
5.1859,-1.8534,-1.5182,1.8839,1.5194,0.00034001,0.011062,-0.10899
5.2161,-1.8559,-1.5195,1.8856,1.5155,0.00034001,0.011062,-0.10899
5.2462,-1.8584,-1.5208,1.8873,1.5116,0.00034001,0.011062,-0.10899
5.2764,-1.8608,-1.5221,1.889,1.5078,0.00034001,0.011062,-0.10899
5.3065,-1.8631,-1.5233,1.8906,1.5041,0.00034001,0.011062,-0.10899
5.3367,-1.8654,-1.5246,1.8922,1.5005,0.00034001,0.011062,-0.10899
5.3668,-1.8677,-1.5257,1.8937,1.497,0.00034001,0.011062,-0.10899
5.397,-1.8699,-1.5269,1.8952,1.4936,0.00034001,0.011062,-0.10899
5.4271,-1.872,-1.528,1.8967,1.4902,0.00034001,0.011062,-0.10899
5.4573,-1.8741,-1.5291,1.8981,1.4869,0.00034001,0.011062,-0.10899
5.4874,-1.8762,-1.5302,1.8995,1.4837,0.00034001,0.011062,-0.10899
5.5176,-1.8782,-1.5312,1.9009,1.4805,0.00034001,0.011062,-0.10899
5.5477,-1.8801,-1.5323,1.9022,1.4775,0.00034001,0.011062,-0.10899
5.5779,-1.882,-1.5332,1.9034,1.4745,0.00034001,0.011062,-0.10899
5.608,-1.8839,-1.5342,1.9047,1.4716,0.00034001,0.011062,-0.10899
5.6382,-1.8857,-1.5352,1.9059,1.4687,0.00034001,0.011062,-0.10899
5.6683,-1.8874,-1.5361,1.9071,1.4659,0.00034001,0.011062,-0.10899
5.6985,-1.8892,-1.537,1.9082,1.4632,0.00034001,0.011062,-0.10899
5.7286,-1.8908,-1.5378,1.9093,1.4606,0.00034001,0.011062,-0.10899
5.7588,-1.8925,-1.5387,1.9104,1.458,0.00034001,0.011062,-0.10899
5.7889,-1.8941,-1.5395,1.9115,1.4555,0.00034001,0.011062,-0.10899
5.8191,-1.8956,-1.5403,1.9125,1.453,0.00034001,0.011062,-0.10899
5.8492,-1.8971,-1.5411,1.9135,1.4506,0.00034001,0.011062,-0.10899
5.8794,-1.8986,-1.5419,1.9145,1.4483,0.00034001,0.011062,-0.10899
5.9095,-1.9,-1.5426,1.9154,1.4461,0.00034001,0.011062,-0.10899
5.9397,-1.9014,-1.5433,1.9163,1.4438,0.00034001,0.011062,-0.10899
5.9698,-1.9028,-1.5441,1.9172,1.4417,0.00034001,0.011062,-0.10899
6,-1.9041,-1.5447,1.9181,1.4396,0.00034001,0.011062,-0.10899
