0,-0.12821,-0.58509,0.16977,2.8651,0.00034001,0.011062,-0.10899
0.030151,-0.11113,-0.58826,0.14942,2.861,0.00034001,0.011062,-0.10899
0.060302,-0.088003,-0.59257,0.12187,2.8554,0.00034001,0.011062,-0.10899
0.090452,-0.060145,-0.59779,0.088684,2.8486,0.00034001,0.011062,-0.10899
0.1206,-0.02867,-0.60372,0.051198,2.8409,0.00034001,0.011062,-0.10899
0.15075,0.0054892,-0.6102,0.010523,2.8324,0.00034001,0.011062,-0.10899
0.1809,0.041552,-0.61707,-0.032411,2.8235,0.00034001,0.011062,-0.10899
0.21106,0.07887,-0.62424,-0.076831,2.8142,0.00034001,0.011062,-0.10899
0.24121,0.11691,-0.6316,-0.1221,2.8047,0.00034001,0.011062,-0.10899
0.27136,0.15523,-0.63907,-0.16769,2.795,0.00034001,0.011062,-0.10899
0.30151,0.19347,-0.64659,-0.21317,2.7853,0.00034001,0.011062,-0.10899
0.33166,0.23134,-0.65411,-0.2582,2.7756,0.00034001,0.011062,-0.10899
0.36181,0.26862,-0.66158,-0.30251,2.7659,0.00034001,0.011062,-0.10899
0.39196,0.30512,-0.66898,-0.34589,2.7564,0.00034001,0.011062,-0.10899
0.42211,0.34071,-0.67627,-0.38816,2.747,0.00034001,0.011062,-0.10899
0.45226,0.37528,-0.68344,-0.42921,2.7378,0.00034001,0.011062,-0.10899
0.48241,0.40877,-0.69047,-0.46894,2.7288,0.00034001,0.011062,-0.10899
0.51256,0.44111,-0.69736,-0.50731,2.72,0.00034001,0.011062,-0.10899
0.54271,0.47229,-0.70409,-0.54427,2.7114,0.00034001,0.011062,-0.10899
0.57286,0.50229,-0.71067,-0.57981,2.703,0.00034001,0.011062,-0.10899
0.60302,0.53112,-0.7171,-0.61394,2.6948,0.00034001,0.011062,-0.10899
0.63317,0.55879,-0.72337,-0.64667,2.6868,0.00034001,0.011062,-0.10899
0.66332,0.58532,-0.7295,-0.67803,2.679,0.00034001,0.011062,-0.10899
0.69347,0.61074,-0.73548,-0.70805,2.6715,0.00034001,0.011062,-0.10899
0.72362,0.63508,-0.74132,-0.73678,2.6641,0.00034001,0.011062,-0.10899
0.75377,0.65839,-0.74703,-0.76425,2.6568,0.00034001,0.011062,-0.10899
0.78392,0.6807,-0.75261,-0.79053,2.6498,0.00034001,0.011062,-0.10899
0.81407,0.70207,-0.75808,-0.81565,2.6429,0.00034001,0.011062,-0.10899
0.84422,0.72252,-0.76343,-0.83968,2.6361,0.00034001,0.011062,-0.10899
0.87437,0.74212,-0.76868,-0.86267,2.6295,0.00034001,0.011062,-0.10899
0.90452,0.7609,-0.77384,-0.88467,2.6231,0.00034001,0.011062,-0.10899
0.93467,0.77892,-0.77891,-0.90573,2.6167,0.00034001,0.011062,-0.10899
0.96482,0.79621,-0.7839,-0.92592,2.6104,0.00034001,0.011062,-0.10899
0.99497,0.81281,-0.78881,-0.94527,2.6043,0.00034001,0.011062,-0.10899
1.0251,0.82878,-0.79367,-0.96384,2.5982,0.00034001,0.011062,-0.10899
1.0553,0.84415,-0.79846,-0.98169,2.5922,0.00034001,0.011062,-0.10899
1.0854,0.85897,-0.8032,-0.99884,2.5862,0.00034001,0.011062,-0.10899
1.1156,0.87326,-0.8079,-1.0154,2.5803,0.00034001,0.011062,-0.10899
1.1457,0.88707,-0.81256,-1.0313,2.5745,0.00034001,0.011062,-0.10899
1.1759,0.90043,-0.81718,-1.0466,2.5687,0.00034001,0.011062,-0.10899
1.206,0.91337,-0.82178,-1.0615,2.5629,0.00034001,0.011062,-0.10899
1.2362,0.92593,-0.82636,-1.0758,2.5572,0.00034001,0.011062,-0.10899
1.2663,0.93813,-0.83091,-1.0898,2.5514,0.00034001,0.011062,-0.10899
1.2965,0.95,-0.83546,-1.1033,2.5457,0.00034001,0.011062,-0.10899
1.3266,0.96158,-0.84,-1.1164,2.54,0.00034001,0.011062,-0.10899
1.3568,0.97288,-0.84453,-1.1291,2.5342,0.00034001,0.011062,-0.10899
1.3869,0.98392,-0.84906,-1.1416,2.5285,0.00034001,0.011062,-0.10899
1.4171,0.99474,-0.8536,-1.1537,2.5227,0.00034001,0.011062,-0.10899
1.4472,1.0053,-0.85814,-1.1656,2.5169,0.00034001,0.011062,-0.10899
1.4774,1.0158,-0.86269,-1.1772,2.5111,0.00034001,0.011062,-0.10899
1.5075,1.026,-0.86725,-1.1886,2.5053,0.00034001,0.011062,-0.10899
1.5377,1.0361,-0.87182,-1.1997,2.4994,0.00034001,0.011062,-0.10899
1.5678,1.046,-0.87642,-1.2107,2.4935,0.00034001,0.011062,-0.10899
1.598,1.0559,-0.88103,-1.2215,2.4875,0.00034001,0.011062,-0.10899
1.6281,1.0656,-0.88565,-1.2321,2.4815,0.00034001,0.011062,-0.10899
1.6583,1.0752,-0.89031,-1.2426,2.4754,0.00034001,0.011062,-0.10899
1.6884,1.0847,-0.89498,-1.2529,2.4693,0.00034001,0.011062,-0.10899
1.7186,1.0942,-0.89968,-1.2631,2.4631,0.00034001,0.011062,-0.10899
1.7487,1.1035,-0.9044,-1.2732,2.4569,0.00034001,0.011062,-0.10899
1.7789,1.1128,-0.90914,-1.2832,2.4506,0.00034001,0.011062,-0.10899
1.809,1.1221,-0.91392,-1.293,2.4442,0.00034001,0.011062,-0.10899
1.8392,1.1313,-0.91872,-1.3028,2.4378,0.00034001,0.011062,-0.10899
1.8693,1.1405,-0.92354,-1.3125,2.4313,0.00034001,0.011062,-0.10899
1.8995,1.1497,-0.92839,-1.3222,2.4248,0.00034001,0.011062,-0.10899
1.9296,1.1588,-0.93327,-1.3318,2.4181,0.00034001,0.011062,-0.10899
1.9598,1.1679,-0.93818,-1.3413,2.4114,0.00034001,0.011062,-0.10899
1.9899,1.177,-0.94311,-1.3507,2.4047,0.00034001,0.011062,-0.10899
2.0201,1.1861,-0.94807,-1.3601,2.3978,0.00034001,0.011062,-0.10899
2.0503,1.1951,-0.95305,-1.3694,2.3909,0.00034001,0.011062,-0.10899
2.0804,1.2042,-0.95805,-1.3787,2.3839,0.00034001,0.011062,-0.10899
2.1106,1.2133,-0.96308,-1.3879,2.3769,0.00034001,0.011062,-0.10899
2.1407,1.2223,-0.96814,-1.3971,2.3697,0.00034001,0.011062,-0.10899
2.1709,1.2314,-0.97321,-1.4063,2.3625,0.00034001,0.011062,-0.10899
2.201,1.2404,-0.97831,-1.4154,2.3552,0.00034001,0.011062,-0.10899
2.2312,1.2495,-0.98342,-1.4244,2.3479,0.00034001,0.011062,-0.10899
2.2613,1.2585,-0.98855,-1.4335,2.3404,0.00034001,0.011062,-0.10899
2.2915,1.2676,-0.9937,-1.4424,2.3329,0.00034001,0.011062,-0.10899
2.3216,1.2767,-0.99887,-1.4514,2.3254,0.00034001,0.011062,-0.10899
2.3518,1.2857,-1.0041,-1.4602,2.3177,0.00034001,0.011062,-0.10899
2.3819,1.2948,-1.0092,-1.4691,2.31,0.00034001,0.011062,-0.10899
2.4121,1.3038,-1.0144,-1.4779,2.3022,0.00034001,0.011062,-0.10899
2.4422,1.3129,-1.0197,-1.4866,2.2944,0.00034001,0.011062,-0.10899
2.4724,1.322,-1.0249,-1.4953,2.2865,0.00034001,0.011062,-0.10899
2.5025,1.331,-1.0301,-1.504,2.2785,0.00034001,0.011062,-0.10899
2.5327,1.3401,-1.0354,-1.5125,2.2704,0.00034001,0.011062,-0.10899
2.5628,1.3491,-1.0406,-1.5211,2.2623,0.00034001,0.011062,-0.10899
2.593,1.3582,-1.0458,-1.5296,2.2542,0.00034001,0.011062,-0.10899
2.6231,1.3672,-1.0511,-1.538,2.2459,0.00034001,0.011062,-0.10899
2.6533,1.3762,-1.0563,-1.5464,2.2377,0.00034001,0.011062,-0.10899
2.6834,1.3853,-1.0615,-1.5547,2.2293,0.00034001,0.011062,-0.10899
2.7136,1.3943,-1.0668,-1.5629,2.2209,0.00034001,0.011062,-0.10899
2.7437,1.4032,-1.072,-1.5711,2.2125,0.00034001,0.011062,-0.10899
2.7739,1.4122,-1.0772,-1.5792,2.204,0.00034001,0.011062,-0.10899
2.804,1.4211,-1.0824,-1.5872,2.1955,0.00034001,0.011062,-0.10899
2.8342,1.4301,-1.0876,-1.5952,2.1869,0.00034001,0.011062,-0.10899
2.8643,1.439,-1.0928,-1.6031,2.1783,0.00034001,0.011062,-0.10899
2.8945,1.4478,-1.098,-1.6109,2.1696,0.00034001,0.011062,-0.10899
2.9246,1.4567,-1.1031,-1.6186,2.1609,0.00034001,0.011062,-0.10899
2.9548,1.4655,-1.1082,-1.6263,2.1522,0.00034001,0.011062,-0.10899
2.9849,1.4742,-1.1133,-1.6338,2.1434,0.00034001,0.011062,-0.10899
3.0151,1.483,-1.1184,-1.6413,2.1347,0.00034001,0.011062,-0.10899
3.0452,1.4917,-1.1235,-1.6487,2.1259,0.00034001,0.011062,-0.10899
3.0754,1.5003,-1.1285,-1.656,2.117,0.00034001,0.011062,-0.10899
3.1055,1.5089,-1.1335,-1.6633,2.1082,0.00034001,0.011062,-0.10899
3.1357,1.5175,-1.1385,-1.6704,2.0993,0.00034001,0.011062,-0.10899
3.1658,1.526,-1.1434,-1.6774,2.0904,0.00034001,0.011062,-0.10899
3.196,1.5344,-1.1484,-1.6844,2.0816,0.00034001,0.011062,-0.10899
3.2261,1.5428,-1.1533,-1.6912,2.0727,0.00034001,0.011062,-0.10899
3.2563,1.5512,-1.1581,-1.698,2.0638,0.00034001,0.011062,-0.10899
3.2864,1.5595,-1.1629,-1.7046,2.0549,0.00034001,0.011062,-0.10899
3.3166,1.5677,-1.1677,-1.7112,2.046,0.00034001,0.011062,-0.10899
3.3467,1.5759,-1.1724,-1.7176,2.0371,0.00034001,0.011062,-0.10899
3.3769,1.584,-1.1771,-1.724,2.0282,0.00034001,0.011062,-0.10899
3.407,1.592,-1.1818,-1.7302,2.0193,0.00034001,0.011062,-0.10899
3.4372,1.6,-1.1864,-1.7364,2.0105,0.00034001,0.011062,-0.10899
3.4673,1.6079,-1.191,-1.7424,2.0017,0.00034001,0.011062,-0.10899
3.4975,1.6157,-1.1955,-1.7483,1.9928,0.00034001,0.011062,-0.10899
3.5276,1.6235,-1.2,-1.7542,1.9841,0.00034001,0.011062,-0.10899
3.5578,1.6312,-1.2044,-1.7599,1.9753,0.00034001,0.011062,-0.10899
3.5879,1.6388,-1.2088,-1.7656,1.9666,0.00034001,0.011062,-0.10899
3.6181,1.6463,-1.2132,-1.7711,1.9579,0.00034001,0.011062,-0.10899
3.6482,1.6537,-1.2175,-1.7765,1.9492,0.00034001,0.011062,-0.10899
3.6784,1.6611,-1.2217,-1.7818,1.9406,0.00034001,0.011062,-0.10899
3.7085,1.6684,-1.2259,-1.787,1.9321,0.00034001,0.011062,-0.10899
3.7387,1.6756,-1.2301,-1.7922,1.9235,0.00034001,0.011062,-0.10899
3.7688,1.6827,-1.2342,-1.7972,1.9151,0.00034001,0.011062,-0.10899
3.799,1.6897,-1.2382,-1.8021,1.9066,0.00034001,0.011062,-0.10899
3.8291,1.6967,-1.2422,-1.8069,1.8983,0.00034001,0.011062,-0.10899
3.8593,1.7035,-1.2461,-1.8116,1.89,0.00034001,0.011062,-0.10899
3.8894,1.7103,-1.25,-1.8162,1.8817,0.00034001,0.011062,-0.10899
3.9196,1.717,-1.2539,-1.8207,1.8735,0.00034001,0.011062,-0.10899
3.9497,1.7236,-1.2576,-1.8251,1.8654,0.00034001,0.011062,-0.10899
3.9799,1.7301,-1.2614,-1.8294,1.8574,0.00034001,0.011062,-0.10899
4.0101,1.7365,-1.265,-1.8336,1.8494,0.00034001,0.011062,-0.10899
4.0402,1.7428,-1.2686,-1.8377,1.8415,0.00034001,0.011062,-0.10899
4.0704,1.749,-1.2722,-1.8418,1.8336,0.00034001,0.011062,-0.10899
4.1005,1.7551,-1.2757,-1.8457,1.8259,0.00034001,0.011062,-0.10899
4.1307,1.7612,-1.2791,-1.8495,1.8182,0.00034001,0.011062,-0.10899
4.1608,1.7671,-1.2825,-1.8533,1.8106,0.00034001,0.011062,-0.10899
4.191,1.773,-1.2859,-1.8569,1.8031,0.00034001,0.011062,-0.10899
4.2211,1.7787,-1.2892,-1.8605,1.7957,0.00034001,0.011062,-0.10899
4.2513,1.7844,-1.2924,-1.864,1.7883,0.00034001,0.011062,-0.10899
4.2814,1.7899,-1.2956,-1.8674,1.781,0.00034001,0.011062,-0.10899
4.3116,1.7954,-1.2987,-1.8707,1.7739,0.00034001,0.011062,-0.10899
4.3417,1.8008,-1.3017,-1.8739,1.7668,0.00034001,0.011062,-0.10899
4.3719,1.8061,-1.3047,-1.877,1.7598,0.00034001,0.011062,-0.10899
4.402,1.8113,-1.3077,-1.8801,1.7529,0.00034001,0.011062,-0.10899
4.4322,1.8164,-1.3106,-1.8831,1.7461,0.00034001,0.011062,-0.10899
4.4623,1.8214,-1.3134,-1.886,1.7394,0.00034001,0.011062,-0.10899
4.4925,1.8263,-1.3162,-1.8888,1.7328,0.00034001,0.011062,-0.10899
4.5226,1.8311,-1.319,-1.8915,1.7262,0.00034001,0.011062,-0.10899
4.5528,1.8359,-1.3216,-1.8942,1.7198,0.00034001,0.011062,-0.10899
4.5829,1.8405,-1.3243,-1.8968,1.7135,0.00034001,0.011062,-0.10899
4.6131,1.8451,-1.3268,-1.8994,1.7073,0.00034001,0.011062,-0.10899
4.6432,1.8496,-1.3294,-1.9018,1.7011,0.00034001,0.011062,-0.10899
4.6734,1.8539,-1.3319,-1.9042,1.6951,0.00034001,0.011062,-0.10899
4.7035,1.8582,-1.3343,-1.9066,1.6892,0.00034001,0.011062,-0.10899
4.7337,1.8624,-1.3367,-1.9088,1.6833,0.00034001,0.011062,-0.10899
4.7638,1.8666,-1.339,-1.911,1.6776,0.00034001,0.011062,-0.10899
4.794,1.8706,-1.3413,-1.9132,1.672,0.00034001,0.011062,-0.10899
4.8241,1.8745,-1.3435,-1.9152,1.6664,0.00034001,0.011062,-0.10899
4.8543,1.8784,-1.3457,-1.9173,1.661,0.00034001,0.011062,-0.10899
4.8844,1.8822,-1.3478,-1.9192,1.6556,0.00034001,0.011062,-0.10899
4.9146,1.8859,-1.3499,-1.9211,1.6504,0.00034001,0.011062,-0.10899
4.9447,1.8895,-1.3519,-1.923,1.6452,0.00034001,0.011062,-0.10899
4.9749,1.8931,-1.3539,-1.9248,1.6402,0.00034001,0.011062,-0.10899
5.005,1.8965,-1.3559,-1.9265,1.6352,0.00034001,0.011062,-0.10899
5.0352,1.8999,-1.3578,-1.9282,1.6304,0.00034001,0.011062,-0.10899
5.0653,1.9032,-1.3596,-1.9299,1.6256,0.00034001,0.011062,-0.10899
5.0955,1.9065,-1.3614,-1.9315,1.6209,0.00034001,0.011062,-0.10899
5.1256,1.9096,-1.3632,-1.933,1.6164,0.00034001,0.011062,-0.10899
5.1558,1.9127,-1.365,-1.9345,1.6119,0.00034001,0.011062,-0.10899
5.1859,1.9158,-1.3667,-1.936,1.6075,0.00034001,0.011062,-0.10899
5.2161,1.9187,-1.3683,-1.9374,1.6032,0.00034001,0.011062,-0.10899
5.2462,1.9216,-1.3699,-1.9388,1.599,0.00034001,0.011062,-0.10899
5.2764,1.9244,-1.3715,-1.9401,1.5949,0.00034001,0.011062,-0.10899
5.3065,1.9271,-1.373,-1.9414,1.5909,0.00034001,0.011062,-0.10899
5.3367,1.9298,-1.3745,-1.9426,1.5869,0.00034001,0.011062,-0.10899
5.3668,1.9324,-1.376,-1.9438,1.5831,0.00034001,0.011062,-0.10899
5.397,1.935,-1.3774,-1.945,1.5793,0.00034001,0.011062,-0.10899
5.4271,1.9375,-1.3788,-1.9462,1.5756,0.00034001,0.011062,-0.10899
5.4573,1.9399,-1.3802,-1.9473,1.572,0.00034001,0.011062,-0.10899
5.4874,1.9422,-1.3815,-1.9483,1.5685,0.00034001,0.011062,-0.10899
5.5176,1.9445,-1.3828,-1.9494,1.565,0.00034001,0.011062,-0.10899
5.5477,1.9468,-1.384,-1.9504,1.5617,0.00034001,0.011062,-0.10899
5.5779,1.949,-1.3852,-1.9514,1.5584,0.00034001,0.011062,-0.10899
5.608,1.9511,-1.3864,-1.9523,1.5552,0.00034001,0.011062,-0.10899
5.6382,1.9532,-1.3876,-1.9532,1.5521,0.00034001,0.011062,-0.10899
5.6683,1.9552,-1.3887,-1.9541,1.549,0.00034001,0.011062,-0.10899
5.6985,1.9572,-1.3898,-1.955,1.5461,0.00034001,0.011062,-0.10899
5.7286,1.9591,-1.3909,-1.9558,1.5431,0.00034001,0.011062,-0.10899
5.7588,1.961,-1.3919,-1.9566,1.5403,0.00034001,0.011062,-0.10899
5.7889,1.9628,-1.3929,-1.9574,1.5375,0.00034001,0.011062,-0.10899
5.8191,1.9646,-1.3939,-1.9581,1.5349,0.00034001,0.011062,-0.10899
5.8492,1.9663,-1.3949,-1.9589,1.5322,0.00034001,0.011062,-0.10899
5.8794,1.968,-1.3958,-1.9596,1.5297,0.00034001,0.011062,-0.10899
5.9095,1.9696,-1.3967,-1.9603,1.5272,0.00034001,0.011062,-0.10899
5.9397,1.9712,-1.3976,-1.9609,1.5247,0.00034001,0.011062,-0.10899
5.9698,1.9728,-1.3985,-1.9616,1.5224,0.00034001,0.011062,-0.10899
6,1.9743,-1.3993,-1.9622,1.52,0.00034001,0.011062,-0.10899
